Make requests to OCBC Cards category APIs — ocbc_cards • OCBCR
…
      merchant
      Filter rewards by merchant names. Optional. Note: Parameter for 'Rewards Catalogue' category only.

      price
      Filter maximum OCBC$ cost of rewards. Optional. Note: Parameter for 'Rewards Catalogue' category only.

    Value

    A detailed dataframe of OCBC card categories with information related to the category specified (e.g A dataframe with information such as merchant, redemption item and validity date of each reward). For the 'Credit Promotions' category, the function returns a list of 2 dataframes: one of the information of the promotions and the other the terms and conditions.

    Examples

ocbc_cards("Rewards", acctoken = Sys.getenv("ACC_TOKEN_OCBC"), limit = "30")
#> API call for Rewards, successful!
#> # A tibble: 27 x 10
#>    merchantName merchantDesc redemptionItem price validityDate instruction
#>    <chr>        <chr>        <chr>          <chr> <chr>        <chr>      
#>  1 313@somerset Embracing S… S$10 313@some… 3900  Valid from … Please vis…
#>  2 AsiaMalls    ""           S$10 Asiamall… 3900  Valid from … Please vis…
#>  3 BEST Denki   Best Denki … S$10 BEST Den… 3500  Valid from … Please app…
#>  4 Caltex       The Caltex … S$10 Petrol V… 3500  Valid from … Please app…
#>  5 City Square… ""           S$10 City Squ… 3900  Valid from … Please app…
#>  6 Courts       Courts star… S$10 off your… 3700  Valid from … Please app…
#>  7 Creative Ea… As one of S… S$10 off your… 3500  Valid from … Please app…
#>  8 Malls of Fr… Frasers Pro… S$10 Frasers … 3900  Valid from … Please app…
#>  9 Gurney Drive ""           S$10 off your… 3700  Valid from … ""         
#> 10 Hotel Fort … Hotel Fort … S$10 Hotel Fo… 3500  Valid from … Please app…
#> # … with 17 more rows, and 4 more variables: outlets <chr>, terms <chr>,
#> #   image <chr>, category <chr>
…
